{
    "product":[
        {
            "productName" : "Product1",
            "price" : 269,
            "isAddedtoCart" : false,
            "productId" : 1
        },
        {
            "productName" : "Product2",
            "price" : 285,
            "isAddedtoCart" : false,
            "productId" : 2
        },
        {
            "productName" : "Product3",
            "price" : 450,
            "isAddedtoCart" : false,
            "productId" : 3
        },
        {
            "productName" : "Product4",
            "price" : 210,
            "isAddedtoCart" : false,
            "productId" : 4
        },
        {
            "productName" : "Product5",
            "price" : 329,
            "isAddedtoCart" : false,
            "productId" : 5
        },
        {
            "productName" : "Product6",
            "price" : 606,
            "isAddedtoCart" : false,
            "productId" : 6
        },
        {
            "productName" : "Product7",
            "price" : 230,
            "isAddedtoCart" : false,
            "productId" : 7
        },
        {
            "productName" : "Product8",
            "price" : 310,
            "isAddedtoCart" : false,
            "productId" : 8
        },
        {
            "productName" : "Product9",
            "price" : 440,
            "isAddedtoCart" : false,
            "productId" : 9
        },{
            "productName" : "Product10",
            "price" : 390,
            "isAddedtoCart" : false,
            "productId" : 10
        }
    ]
}

